…
ensgene: se corresponde con la columna en la tabla donde tenemos todos los ensembl_ids de los genes
ensemble.ids: es nuestra variable con los genes ensembl_ids nuestros y 
$V1 es porque están en la columna 1.

> ensembl.ids
               V1
1 ENSG00000139618
2 ENSG00000171094
3 ENSG00000109132
4 ENSG00000152256
5 ENSG00000105369

> grch38
# A tibble: 75,118 × 9
   ensgene         entrez symbol   chr       start       end strand biotype     description
   <chr>            <int> <chr>    <chr>     <int>     <int>  <int> <chr>       <chr>      
 1 ENSG00000000003   7105 TSPAN6   X     100627108 100639991     -1 protein_co… tetraspani…
 2 ENSG00000000005  64102 TNMD     X     100584936 100599885      1 protein_co… tenomodulin
 3 ENSG00000000419   8813 DPM1     20     50934867  50959140     -1 protein_co… dolichyl-p…
 4 ENSG00000000457  57147 SCYL3    1     169849631 169894267     -1 protein_co… SCY1 like …
 5 ENSG00000000460  55732 C1orf112 1     169662007 169854080      1 protein_co… chromosome…
 6 ENSG00000000938   2268 FGR      1      27612064  27635185     -1 protein_co… FGR proto-…
 7 ENSG00000000971   3075 CFH      1     196651754 196752476      1 protein_co… complement…
 8 ENSG00000001036   2519 FUCA2    6     143494812 143511720     -1 protein_co… alpha-L-fu…
 9 ENSG00000001084   2729 GCLC     6      53497341  53616970     -1 protein_co… glutamate-…
10 ENSG00000001167   4800 NFYA     6      41072974  41102403      1 protein_co… nuclear tr…
# ℹ 75,108 more rows
# ℹ Use `print(n = ...)` to see more rows
…
